# Fdb version 3
["pdflatex"] 1586598546 "/home/blizzard/Documents/bowserscastle/pwn-notebook/notebook.tex" "/home/blizzard/Documents/bowserscastle/pwn-notebook/notebook.pdf" "notebook" 1586598546
  "/dev/null" 1586582456 0 d41d8cd98f00b204e9800998ecf8427e ""
  "/etc/texmf/web2c/texmf.cnf" 1585561844 475 c0e671620eb5563b2130f56340a5fde8 ""
  "/home/blizzard/Documents/bowserscastle/pwn-notebook/notebook.aux" 1586598546 719 50f3cf23dff4305b6c613d6270d6e0e5 ""
  "/home/blizzard/Documents/bowserscastle/pwn-notebook/notebook.tex" 1586598545 5866 e809e03361aea1bff3dc89a8a2d466c8 ""
  "/usr/share/texlive/texmf-dist/fonts/map/fontname/texfonts.map" 1511824771 3332 103109f5612ad95229751940c61aada0 ""
  "/usr/share/texlive/texmf-dist/fonts/tfm/public/amsfonts/cmextra/cmex7.tfm" 1480098698 1004 54797486969f23fa377b128694d548df ""
  "/usr/share/texlive/texmf-dist/fonts/tfm/public/amsfonts/symbols/msam10.tfm" 1480098698 916 f87d7c45f9c908e672703b83b72241a3 ""
  "/usr/share/texlive/texmf-dist/fonts/tfm/public/amsfonts/symbols/msam5.tfm" 1480098698 924 9904cf1d39e9767e7a3622f2a125a565 ""
  "/usr/share/texlive/texmf-dist/fonts/tfm/public/amsfonts/symbols/msam7.tfm" 1480098698 928 2dc8d444221b7a635bb58038579b861a ""
  "/usr/share/texlive/texmf-dist/fonts/tfm/public/amsfonts/symbols/msbm10.tfm" 1480098698 908 2921f8a10601f252058503cc6570e581 ""
  "/usr/share/texlive/texmf-dist/fonts/tfm/public/amsfonts/symbols/msbm5.tfm" 1480098698 940 75ac932a52f80982a9f8ea75d03a34cf ""
  "/usr/share/texlive/texmf-dist/fonts/tfm/public/amsfonts/symbols/msbm7.tfm" 1480098698 940 228d6584342e91276bf566bcf9716b83 ""
  "/usr/share/texlive/texmf-dist/fonts/tfm/public/cm/cmbx12.tfm" 1136768653 1324 c910af8c371558dc20f2d7822f66fe64 ""
  "/usr/share/texlive/texmf-dist/fonts/tfm/public/cm/cmcsc10.tfm" 1136768653 1300 63a6111ee6274895728663cf4b4e7e81 ""
  "/usr/share/texlive/texmf-dist/fonts/tfm/public/cm/cmr10.tfm" 1136768653 1296 45809c5a464d5f32c8f98ba97c1bb47f ""
  "/usr/share/texlive/texmf-dist/fonts/tfm/public/cm/cmr12.tfm" 1136768653 1288 655e228510b4c2a1abe905c368440826 ""
  "/usr/share/texlive/texmf-dist/fonts/tfm/public/cm/cmr17.tfm" 1136768653 1292 296a67155bdbfc32aa9c636f21e91433 ""
  "/usr/share/texlive/texmf-dist/fonts/tfm/public/cm/cmti12.tfm" 1136768653 1484 ed72f8f5cf654cda15ecc8e32bfcbee5 ""
  "/usr/share/texlive/texmf-dist/fonts/tfm/public/esint/esint10.tfm" 1480098705 364 55557743e6c24ee44e49bc5e8dbbe3cd ""
  "/usr/share/texlive/texmf-dist/fonts/type1/public/amsfonts/cm/cmbx12.pfb" 1480098733 32080 340ef9bf63678554ee606688e7b5339d ""
  "/usr/share/texlive/texmf-dist/fonts/type1/public/amsfonts/cm/cmcsc10.pfb" 1480098733 32001 6aeea3afe875097b1eb0da29acd61e28 ""
  "/usr/share/texlive/texmf-dist/fonts/type1/public/amsfonts/cm/cmr10.pfb" 1480098733 35752 024fb6c41858982481f6968b5fc26508 ""
  "/usr/share/texlive/texmf-dist/fonts/type1/public/amsfonts/cm/cmr12.pfb" 1480098733 32722 d7379af29a190c3f453aba36302ff5a9 ""
  "/usr/share/texlive/texmf-dist/fonts/type1/public/amsfonts/cm/cmti12.pfb" 1480098733 36118 fad905eba93cff5bce1e185fe980a177 ""
  "/usr/share/texlive/texmf-dist/tex/context/base/mkii/supp-pdf.mkii" 1461363279 71627 94eb9990bed73c364d7f53f960cc8c5b ""
  "/usr/share/texlive/texmf-dist/tex/generic/babel-english/english.ldf" 1496785618 7008 9ff5fdcc865b01beca2b0fe4a46231d4 ""
  "/usr/share/texlive/texmf-dist/tex/generic/babel/babel.def" 1542149371 74097 730193adbb112990f38051a05f35ac11 ""
  "/usr/share/texlive/texmf-dist/tex/generic/babel/babel.sty" 1542149371 16329 4c42e43c85185e6cb0936a628ade375c ""
  "/usr/share/texlive/texmf-dist/tex/generic/babel/switch.def" 1542149371 13310 fcb0ad08386d450f0c718feed9fe2fee ""
  "/usr/share/texlive/texmf-dist/tex/generic/babel/txtbabel.def" 1528235896 7435 6c566fc19b3503b2b2da8bb4550f2b58 ""
  "/usr/share/texlive/texmf-dist/tex/generic/chemfig/chemfig.sty" 1520549650 301 612add931a2bba98f494a32c0aaa8ae5 ""
  "/usr/share/texlive/texmf-dist/tex/generic/chemfig/chemfig.tex" 1551048706 108273 cc4576fb6f3d2223fbc5f0ab730b12bd ""
  "/usr/share/texlive/texmf-dist/tex/generic/ifxetex/ifxetex.sty" 1480098815 1458 43ab4710dc82f3edeabecd0d099626b2 ""
  "/usr/share/texlive/texmf-dist/tex/generic/oberdiek/atbegshi.sty" 1465595255 24580 144573175d90c8e36676f97ae1d11ec2 ""
  "/usr/share/texlive/texmf-dist/tex/generic/oberdiek/etexcmds.sty" 1463608860 7612 729a8cc22a1ee0029997c7f74717ae05 ""
  "/usr/share/texlive/texmf-dist/tex/generic/oberdiek/gettitlestring.sty" 1463608860 8237 3b62ef1f7e2c23a328c814b3893bc11f ""
  "/usr/share/texlive/texmf-dist/tex/generic/oberdiek/hobsub-generic.sty" 1536701967 185392 b99a6d53180e04300c35e18725f31231 ""
  "/usr/share/texlive/texmf-dist/tex/generic/oberdiek/hobsub-hyperref.sty" 1465595255 70864 bcd5b216757bd619ae692a151d90085d ""
  "/usr/share/texlive/texmf-dist/tex/generic/oberdiek/ifluatex.sty" 1463608860 7324 2310d1247db0114eb4726807c8837a0e ""
  "/usr/share/texlive/texmf-dist/tex/generic/oberdiek/ifpdf.sty" 1536443070 1300 96620a7d94bc0ceb261d968770ce8315 ""
  "/usr/share/texlive/texmf-dist/tex/generic/oberdiek/infwarerr.sty" 1463608860 8253 473e0e41f9adadb1977e8631b8f72ea6 ""
  "/usr/share/texlive/texmf-dist/tex/generic/oberdiek/kvdefinekeys.sty" 1463608860 5152 b67a3a964ad9851e095110c854a1d461 ""
  "/usr/share/texlive/texmf-dist/tex/generic/oberdiek/kvsetkeys.sty" 1463608860 14040 ac8866aac45982ac84021584b0abb252 ""
  "/usr/share/texlive/texmf-dist/tex/generic/oberdiek/ltxcmds.sty" 1463608860 18425 5b3c0c59d76fac78978b5558e83c1f36 ""
  "/usr/share/texlive/texmf-dist/tex/generic/oberdiek/pdftexcmds.sty" 1536701967 20457 0d2e642faacbb41c9d72690f8cc529cd ""
  "/usr/share/texlive/texmf-dist/tex/generic/pgf/basiclayer/pgfcore.code.tex" 1546728038 969 03f6c464fd951d8725b3a4959f4c6de0 ""
  "/usr/share/texlive/texmf-dist/tex/generic/pgf/basiclayer/pgfcorearrows.code.tex" 1546728038 43820 bc6cf5aa959817914ace33f5c6232161 ""
  "/usr/share/texlive/texmf-dist/tex/generic/pgf/basiclayer/pgfcoreexternal.code.tex" 1546728038 19327 d5d8b64d8e8902e0467e95a8e7c7696a ""
  "/usr/share/texlive/texmf-dist/tex/generic/pgf/basiclayer/pgfcoregraphicstate.code.tex" 1546728038 6038 d639d02574be9a72f3c602c2a3510e02 ""
  "/usr/share/texlive/texmf-dist/tex/generic/pgf/basiclayer/pgfcoreimage.code.tex" 1546728038 6948 284bbe3c9a7ca0a826c1c03895e69b9f ""
  "/usr/share/texlive/texmf-dist/tex/generic/pgf/basiclayer/pgfcorelayers.code.tex" 1546728038 4883 a6f3eb1f71d8c4affaf43a169828b043 ""
  "/usr/share/texlive/texmf-dist/tex/generic/pgf/basiclayer/pgfcoreobjects.code.tex" 1546728038 2544 3b1b198fd49f01e328adc9162a07b213 ""
  "/usr/share/texlive/texmf-dist/tex/generic/pgf/basiclayer/pgfcorepathconstruct.code.tex" 1546728038 44195 134d5eb267e64d2a6b6dc75008e7c5fd ""
  "/usr/share/texlive/texmf-dist/tex/generic/pgf/basiclayer/pgfcorepathprocessing.code.tex" 1546728038 17311 3092579be20ef0f229c42ad3f09da85c ""
  "/usr/share/texlive/texmf-dist/tex/generic/pgf/basiclayer/pgfcorepathusage.code.tex" 1546728038 21302 d6c4b340248adbe650ebf6ca76bdccca ""
  "/usr/share/texlive/texmf-dist/tex/generic/pgf/basiclayer/pgfcorepatterns.code.tex" 1546728038 9541 9d1ee06aeaf948a30f150e450eb2d944 ""
  "/usr/share/texlive/texmf-dist/tex/generic/pgf/basiclayer/pgfcorepoints.code.tex" 1546728038 35255 97ed2fc851a68f753ba47b7329c64cd6 ""
  "/usr/share/texlive/texmf-dist/tex/generic/pgf/basiclayer/pgfcorequick.code.tex" 1546728038 2965 502761b60f43ab2de5ecb2f4625163ae ""
  "/usr/share/texlive/texmf-dist/tex/generic/pgf/basiclayer/pgfcorerdf.code.tex" 1546728038 5196 f8c5c775d4d6e2cb050392127cabda72 ""
  "/usr/share/texlive/texmf-dist/tex/generic/pgf/basiclayer/pgfcorescopes.code.tex" 1546728038 20769 880132a4052c1f4e99080e076592048d ""
  "/usr/share/texlive/texmf-dist/tex/generic/pgf/basiclayer/pgfcoreshade.code.tex" 1546728038 21441 8406a93495c4d3eb13cc93ff27ed5594 ""
  "/usr/share/texlive/texmf-dist/tex/generic/pgf/basiclayer/pgfcoretransformations.code.tex" 1546728038 21989 266e83c51fe41eb8b8d5e6896dc71cc1 ""
  "/usr/share/texlive/texmf-dist/tex/generic/pgf/basiclayer/pgfcoretransparency.code.tex" 1546728038 8842 5cc856e132fac404805c6da091779283 ""
  "/usr/share/texlive/texmf-dist/tex/generic/pgf/frontendlayer/tikz/libraries/tikzlibraryfadings.code.tex" 1546728038 1179 bb12be2a349da04542eb1820d6ef2546 ""
  "/usr/share/texlive/texmf-dist/tex/generic/pgf/frontendlayer/tikz/libraries/tikzlibrarypositioning.code.tex" 1546728038 3937 20cd45386ca23052ce976464f0ada984 ""
  "/usr/share/texlive/texmf-dist/tex/generic/pgf/frontendlayer/tikz/libraries/tikzlibraryshadows.code.tex" 1546728038 2889 cc480f49ed20c2fcdee5258286919df6 ""
  "/usr/share/texlive/texmf-dist/tex/generic/pgf/frontendlayer/tikz/libraries/tikzlibrarytopaths.code.tex" 1546728038 11605 3cfbfe82478675de992de878ae30cba4 ""
  "/usr/share/texlive/texmf-dist/tex/generic/pgf/frontendlayer/tikz/tikz.code.tex" 1549146993 183429 981b5b2f94d03d6b4fb30ea9ab9200c8 ""
  "/usr/share/texlive/texmf-dist/tex/generic/pgf/libraries/pgflibraryarrows.meta.code.tex" 1546728038 58801 c503519b1e019b14dc7fb801de6de024 ""
  "/usr/share/texlive/texmf-dist/tex/generic/pgf/libraries/pgflibraryfadings.code.tex" 1546728038 2563 97c355d55617296f2e7ef7030bada827 ""
  "/usr/share/texlive/texmf-dist/tex/generic/pgf/libraries/pgflibraryplothandlers.code.tex" 1546728038 32995 a4d54c043ae5274ceaaddeb36ad43a6f ""
  "/usr/share/texlive/texmf-dist/tex/generic/pgf/math/pgfmath.code.tex" 1546728038 520 910e22995dad318235ba8e2fb536bf3a ""
  "/usr/share/texlive/texmf-dist/tex/generic/pgf/math/pgfmathcalc.code.tex" 1393459310 13416 940ea6971d7a65dc440d3479939c66ae ""
  "/usr/share/texlive/texmf-dist/tex/generic/pgf/math/pgfmathfloat.code.tex" 1546728038 95102 474fa5793f7f3067e17a5df9b98218c1 ""
  "/usr/share/texlive/texmf-dist/tex/generic/pgf/math/pgfmathfunctions.base.code.tex" 1393459310 9375 5adc70f722abd29fc250d59e0694b548 ""
  "/usr/share/texlive/texmf-dist/tex/generic/pgf/math/pgfmathfunctions.basic.code.tex" 1439074469 22069 7c21c42b15718ce922f36235be360490 ""
  "/usr/share/texlive/texmf-dist/tex/generic/pgf/math/pgfmathfunctions.code.tex" 1439074469 8210 a7be5b52ef3d2c087b7dc3d52898b67e ""
  "/usr/share/texlive/texmf-dist/tex/generic/pgf/math/pgfmathfunctions.comparison.code.tex" 1288312291 3534 c7f28fbac13616513e513efe93b8569b ""
  "/usr/share/texlive/texmf-dist/tex/generic/pgf/math/pgfmathfunctions.integerarithmetics.code.tex" 1546728038 3168 6189b7a28d77f4af65d3a14e7f03c083 ""
  "/usr/share/texlive/texmf-dist/tex/generic/pgf/math/pgfmathfunctions.misc.code.tex" 1439074469 9289 261407875b9dbb0194691c3eb893610f ""
  "/usr/share/texlive/texmf-dist/tex/generic/pgf/math/pgfmathfunctions.random.code.tex" 1439074469 7078 946ddf4a7e57219b6afdbad98eb6731b ""
  "/usr/share/texlive/texmf-dist/tex/generic/pgf/math/pgfmathfunctions.round.code.tex" 1546728038 2942 88413c69264c367e851538882cebd4ab ""
  "/usr/share/texlive/texmf-dist/tex/generic/pgf/math/pgfmathfunctions.trigonometric.code.tex" 1439074469 92284 dcf023dbaa84e6c50e11c2f79fe8cfa6 ""
  "/usr/share/texlive/texmf-dist/tex/generic/pgf/math/pgfmathparser.code.tex" 1546728038 36120 4aaaf2a5a988fdb79e316766ce090110 ""
  "/usr/share/texlive/texmf-dist/tex/generic/pgf/math/pgfmathutil.code.tex" 1393459310 7099 f44d505bae6c7c2b933cdd63441db4b9 ""
  "/usr/share/texlive/texmf-dist/tex/generic/pgf/modules/pgfmodulematrix.code.tex" 1546728038 20850 69672e3a68af93b0052e22743ab29325 ""
  "/usr/share/texlive/texmf-dist/tex/generic/pgf/modules/pgfmoduleplot.code.tex" 1546728038 16105 ad277a81d51151a43eada2f59e9c7f63 ""
  "/usr/share/texlive/texmf-dist/tex/generic/pgf/modules/pgfmoduleshapes.code.tex" 1546728038 43225 550a85f34e942cf510108872e6d17824 ""
  "/usr/share/texlive/texmf-dist/tex/generic/pgf/pgf.revision.tex" 1549146993 463 2e8ae5ae7338c3efc0d56a1c648a2938 ""
  "/usr/share/texlive/texmf-dist/tex/generic/pgf/systemlayer/pgf.cfg" 1546728038 929 c7e63c9d336acc04681ebf5d5974ff79 ""
  "/usr/share/texlive/texmf-dist/tex/generic/pgf/systemlayer/pgfsys-common-pdf.def" 1546728038 5554 eaa8269939dc6788f137cf082148c630 ""
  "/usr/share/texlive/texmf-dist/tex/generic/pgf/systemlayer/pgfsys-pdftex.def" 1546728038 13467 81cbde9036aeefde6ced72c35f65a11e ""
  "/usr/share/texlive/texmf-dist/tex/generic/pgf/systemlayer/pgfsys.code.tex" 1546728038 60336 26aaa566685b708e5bbad33b1fea85b6 ""
  "/usr/share/texlive/texmf-dist/tex/generic/pgf/systemlayer/pgfsysprotocol.code.tex" 1546728038 1895 a804dfc15a55439296d72fd96ed29ac7 ""
  "/usr/share/texlive/texmf-dist/tex/generic/pgf/systemlayer/pgfsyssoftpath.code.tex" 1546728038 7793 fb7bd1e1f7162b9073fa1d5356c99d44 ""
  "/usr/share/texlive/texmf-dist/tex/generic/pgf/utilities/pgffor.code.tex" 1546728038 22321 e57de05109d919549a27eaaf05c180fc ""
  "/usr/share/texlive/texmf-dist/tex/generic/pgf/utilities/pgfkeys.code.tex" 1546728038 36455 3b0b1cf51efce44b8791b93c27bbca48 ""
  "/usr/share/texlive/texmf-dist/tex/generic/pgf/utilities/pgfkeysfiltered.code.tex" 1546728038 33347 679274d4aa67c6bc8f5f234caa49367d ""
  "/usr/share/texlive/texmf-dist/tex/generic/pgf/utilities/pgfrcs.code.tex" 1546728038 2311 e273ccf1220640ccce91d49a21bd5eec ""
  "/usr/share/texlive/texmf-dist/tex/generic/pgf/utilities/pgfutil-common-lists.tex" 1393459310 6833 114eda2cf1d348e0e7e477a1a4dc1941 ""
  "/usr/share/texlive/texmf-dist/tex/generic/pgf/utilities/pgfutil-common.tex" 1546728038 26409 498c460a45ec6d31d3794cb500da29ed ""
  "/usr/share/texlive/texmf-dist/tex/generic/pgf/utilities/pgfutil-latex.def" 1546728038 5845 c578abb59cb8ad0a9156fdb1b59cfa38 ""
  "/usr/share/texlive/texmf-dist/tex/generic/simplekv/simplekv.tex" 1502224896 15687 bea91d500dc12f12297c8df75759fe8c ""
  "/usr/share/texlive/texmf-dist/tex/generic/unicode-data/UnicodeData.txt" 1528926238 1769137 acc291106c3758d2025f8d7bd5518bee ""
  "/usr/share/texlive/texmf-dist/tex/generic/xkeyval/xkeyval.tex" 1480098819 19231 26434a5656c684f5ffb1f26f98006baa ""
  "/usr/share/texlive/texmf-dist/tex/generic/xkeyval/xkvutils.tex" 1480098819 7677 6f5ce7c1124cad7ec57d05b2562bd8fe ""
  "/usr/share/texlive/texmf-dist/tex/latex/amsfonts/amsfonts.sty" 1480098820 5949 3f3fd50a8cc94c3d4cbf4fc66cd3df1c ""
  "/usr/share/texlive/texmf-dist/tex/latex/amsfonts/amssymb.sty" 1480098820 13829 94730e64147574077f8ecfea9bb69af4 ""
  "/usr/share/texlive/texmf-dist/tex/latex/amsfonts/umsa.fd" 1480098820 961 6518c6525a34feb5e8250ffa91731cff ""
  "/usr/share/texlive/texmf-dist/tex/latex/amsfonts/umsb.fd" 1480098820 961 d02606146ba5601b5645f987c92e6193 ""
  "/usr/share/texlive/texmf-dist/tex/latex/amsmath/amsbsy.sty" 1523134290 2211 ca7ce284ab93c8eecdc6029dc5ccbd73 ""
  "/usr/share/texlive/texmf-dist/tex/latex/amsmath/amsgen.sty" 1523134290 4161 7f6eb9092061a11f87d08ed13515b48d ""
  "/usr/share/texlive/texmf-dist/tex/latex/amsmath/amsmath.sty" 1544567569 85093 77cfa18ddbae4d9b74ade33d843686d3 ""
  "/usr/share/texlive/texmf-dist/tex/latex/amsmath/amsopn.sty" 1523134290 4116 32e6abd27229755a83a8b7f18e583890 ""
  "/usr/share/texlive/texmf-dist/tex/latex/amsmath/amstext.sty" 1523134290 2432 8ff93b1137020e8f21930562a874ae66 ""
  "/usr/share/texlive/texmf-dist/tex/latex/base/alltt.sty" 1523050425 3142 41d54e810bb4bed45b915ab99f1df119 ""
  "/usr/share/texlive/texmf-dist/tex/latex/base/bk10.clo" 1544567569 8134 ac6964cf5a7ffe6e15439e746956135d ""
  "/usr/share/texlive/texmf-dist/tex/latex/base/book.cls" 1544567569 23057 c530077dc0c87c9ab73e8388f54f2c23 ""
  "/usr/share/texlive/texmf-dist/tex/latex/base/ifthen.sty" 1523050425 5161 c004ea5a189d4bdcf42e86754ad75a58 ""
  "/usr/share/texlive/texmf-dist/tex/latex/base/inputenc.sty" 1544567569 5052 b64c57f4a38aae0d2745f8298fa50814 ""
  "/usr/share/texlive/texmf-dist/tex/latex/braket/braket.sty" 1480098823 3601 193635d942bc4777a5acaaeeffdce692 ""
  "/usr/share/texlive/texmf-dist/tex/latex/caption/caption.sty" 1539032178 68576 86bbc6bd5a409b3c353fccc1a815fa5b ""
  "/usr/share/texlive/texmf-dist/tex/latex/caption/caption3.sty" 1538606650 68510 943558eecf41da4e76fc614fd7f5deff ""
  "/usr/share/texlive/texmf-dist/tex/latex/caption/subcaption.sty" 1528577929 4851 d029892ba4eeaa22f58796af60cf1631 ""
  "/usr/share/texlive/texmf-dist/tex/latex/environ/environ.sty" 1480098827 4378 f429f0da968c278653359293040a8f52 ""
  "/usr/share/texlive/texmf-dist/tex/latex/esint/esint.sty" 1480098827 2738 d009930b67bcc6c8477ed9dd979e1bec ""
  "/usr/share/texlive/texmf-dist/tex/latex/esint/uesint.fd" 1480098827 777 8a4024cddce58525258bc7d69de6dc0d ""
  "/usr/share/texlive/texmf-dist/tex/latex/etoolbox/etoolbox.sty" 1534713891 43865 f83cc2fa3767abdb988c7d2cd17c02bf ""
  "/usr/share/texlive/texmf-dist/tex/latex/float/float.sty" 1480098828 6749 16d2656a1984957e674b149555f1ea1d ""
  "/usr/share/texlive/texmf-dist/tex/latex/graphics-cfg/color.cfg" 1480098830 1213 620bba36b25224fa9b7e1ccb4ecb76fd ""
  "/usr/share/texlive/texmf-dist/tex/latex/graphics-cfg/graphics.cfg" 1480098830 1224 978390e9c2234eab29404bc21b268d1e ""
  "/usr/share/texlive/texmf-dist/tex/latex/graphics-def/pdftex.def" 1515537368 17334 520b9b85ad8a2a48eda3f643e27a5179 ""
  "/usr/share/texlive/texmf-dist/tex/latex/graphics/graphics.sty" 1523134385 15272 5a97061616e0c8b2aa79c6615ff769f4 ""
  "/usr/share/texlive/texmf-dist/tex/latex/graphics/graphicx.sty" 1523134385 9063 d0a305975932762117cd1f06a582f896 ""
  "/usr/share/texlive/texmf-dist/tex/latex/graphics/keyval.sty" 1523134385 2591 6404d0c7d28505fb38ce0d86c2e28ae7 ""
  "/usr/share/texlive/texmf-dist/tex/latex/graphics/trig.sty" 1523134385 3977 cb9221976ed8a183afad65b59aa8629a ""
  "/usr/share/texlive/texmf-dist/tex/latex/hyperref/hpdftex.def" 1543704539 51744 477aad43ad6a7ba8c462d20c3e0808e0 ""
  "/usr/share/texlive/texmf-dist/tex/latex/hyperref/hyperref.sty" 1543704539 236074 d994150943d35d6af0d586a60cc78dd1 ""
  "/usr/share/texlive/texmf-dist/tex/latex/hyperref/nameref.sty" 1465687530 12949 81e4e808884a8f0e276b69410e234656 ""
  "/usr/share/texlive/texmf-dist/tex/latex/hyperref/pd1enc.def" 1543704539 14098 b4e1ecab4699a0341b8e1349e4c53fb1 ""
  "/usr/share/texlive/texmf-dist/tex/latex/l3kernel/expl3-code.tex" 1550356774 978969 ea00779a4e924fc996eabfce5826905e ""
  "/usr/share/texlive/texmf-dist/tex/latex/l3kernel/expl3.sty" 1550356774 9824 221c10456d7fdfd5013036a3b991642e ""
  "/usr/share/texlive/texmf-dist/tex/latex/l3kernel/l3pdfmode.def" 1550356774 16212 713dbead930ffb58b188112777e06b82 ""
  "/usr/share/texlive/texmf-dist/tex/latex/l3packages/xparse/xparse.sty" 1539894719 78679 0f13caccf8fc0a14ee080e185fe4bd6e ""
  "/usr/share/texlive/texmf-dist/tex/latex/latexconfig/epstopdf-sys.cfg" 1480098833 678 4792914a8f45be57bb98413425e4c7af ""
  "/usr/share/texlive/texmf-dist/tex/latex/latexconfig/hyperref.cfg" 1480098833 235 6031e5765137be07eed51a510b2b8fb7 ""
  "/usr/share/texlive/texmf-dist/tex/latex/listings/listings.cfg" 1536009181 1828 dcfaf5610ea22a61c7baac6f2ca3cb43 ""
  "/usr/share/texlive/texmf-dist/tex/latex/listings/listings.sty" 1536009181 80394 a25e563baccecba00b03b4a462eb4141 ""
  "/usr/share/texlive/texmf-dist/tex/latex/listings/lstmisc.sty" 1536009181 77021 1c90ba86bdf6da80a6b661f51d7f0175 ""
  "/usr/share/texlive/texmf-dist/tex/latex/mathtools/mathtools.sty" 1515449928 53430 0411f0481da6078e76fd7de46531d2e0 ""
  "/usr/share/texlive/texmf-dist/tex/latex/mathtools/mhsetup.sty" 1496786006 5317 cf75154a8a7e6436f05a5be497f0b05e ""
  "/usr/share/texlive/texmf-dist/tex/latex/mdframed/md-frame-1.mdf" 1480098833 24632 760c4c81e779e6958bac43417deb524f ""
  "/usr/share/texlive/texmf-dist/tex/latex/mdframed/mdframed.sty" 1480098833 53487 3e997243f47cb3ba8b4c7b8df9c82989 ""
  "/usr/share/texlive/texmf-dist/tex/latex/ms/everyshi.sty" 1480098835 3878 6aa7c08ff2621006e0603349e40a30a8 ""
  "/usr/share/texlive/texmf-dist/tex/latex/needspace/needspace.sty" 1480098835 852 0e34dbb72efc69fa07602405ad95585e ""
  "/usr/share/texlive/texmf-dist/tex/latex/oberdiek/auxhook.sty" 1463608860 3834 4363110eb0ef1eb2b71c8fcbcdb6c357 ""
  "/usr/share/texlive/texmf-dist/tex/latex/oberdiek/epstopdf-base.sty" 1463608860 12095 5337833c991d80788a43d3ce26bd1c46 ""
  "/usr/share/texlive/texmf-dist/tex/latex/oberdiek/grfext.sty" 1463608860 7075 2fe3d848bba95f139de11ded085e74aa ""
  "/usr/share/texlive/texmf-dist/tex/latex/oberdiek/kvoptions.sty" 1463608860 22417 1d9df1eb66848aa31b18a593099cf45c ""
  "/usr/share/texlive/texmf-dist/tex/latex/oberdiek/rerunfilecheck.sty" 1463608860 9581 023642318cef9f4677efe364de1e2a27 ""
  "/usr/share/texlive/texmf-dist/tex/latex/oberdiek/zref-abspage.sty" 1543614613 2153 97f0908b85d3e2d2589cffbe50932be8 ""
  "/usr/share/texlive/texmf-dist/tex/latex/oberdiek/zref-base.sty" 1543614613 20510 c53f28ef33a3eb08237ac523fc267148 ""
  "/usr/share/texlive/texmf-dist/tex/latex/paralist/paralist.sty" 1485126066 14857 82c76ebe8f06becf69ab309565b2a0cb ""
  "/usr/share/texlive/texmf-dist/tex/latex/pgf/basiclayer/pgf.sty" 1546728038 1090 d20f587ea9464d1841bd0d13d3ff9856 ""
  "/usr/share/texlive/texmf-dist/tex/latex/pgf/basiclayer/pgfcore.sty" 1288312291 410 5bf12ea7330e5f12c445332a4fe9a263 ""
  "/usr/share/texlive/texmf-dist/tex/latex/pgf/compatibility/pgfcomp-version-0-65.sty" 1546728038 21013 e98e1aaaf40d31632787c2bd25d24b57 ""
  "/usr/share/texlive/texmf-dist/tex/latex/pgf/compatibility/pgfcomp-version-1-18.sty" 1546728038 989 2cf3da8e8ec55131c49389428d565e37 ""
  "/usr/share/texlive/texmf-dist/tex/latex/pgf/frontendlayer/tikz.sty" 1203877327 339 592cf35cba3d400082b8a9a5d0199d70 ""
  "/usr/share/texlive/texmf-dist/tex/latex/pgf/math/pgfmath.sty" 1393459310 306 0796eafca5e159e6ec2167a6d22d81b1 ""
  "/usr/share/texlive/texmf-dist/tex/latex/pgf/systemlayer/pgfsys.sty" 1393459310 443 0b2e781830192df35c0fd357cf13e26e ""
  "/usr/share/texlive/texmf-dist/tex/latex/pgf/utilities/pgffor.sty" 1393459310 348 8927fde343487e003b01a4c2ca34073b ""
  "/usr/share/texlive/texmf-dist/tex/latex/pgf/utilities/pgfkeys.sty" 1203727794 274 4cad6e665cc93ac2ac979039a94fa1e1 ""
  "/usr/share/texlive/texmf-dist/tex/latex/pgf/utilities/pgfrcs.sty" 1203877327 325 2bcd023400636339210573e2b3ee298b ""
  "/usr/share/texlive/texmf-dist/tex/latex/tcolorbox/tcolorbox.sty" 1544223098 83062 f61504a5a2087601e4602e0832aacd8c ""
  "/usr/share/texlive/texmf-dist/tex/latex/todonotes/todonotes.sty" 1548458676 20203 358629b844d5836b09788bf66f4e806b ""
  "/usr/share/texlive/texmf-dist/tex/latex/tools/calc.sty" 1523050425 10212 357072c1d20578a30d6387d8a22e72ab ""
  "/usr/share/texlive/texmf-dist/tex/latex/tools/multicol.sty" 1546812253 30849 03c22687ffd5fa0f72f2a417c6cf4ce1 ""
  "/usr/share/texlive/texmf-dist/tex/latex/tools/verbatim.sty" 1523050425 7262 cf84171354dfa1855684c0946ff000f1 ""
  "/usr/share/texlive/texmf-dist/tex/latex/trimspaces/trimspaces.sty" 1480098841 1380 971a51b00a14503ddf754cab24c3f209 ""
  "/usr/share/texlive/texmf-dist/tex/latex/ucs/data/uni-global.def" 1480098842 1375 8a855db83af5d6753ccbbd32e6a8a901 ""
  "/usr/share/texlive/texmf-dist/tex/latex/ucs/ucs.sty" 1480098842 27982 5723d81d568db410592a59b85fb3eaae ""
  "/usr/share/texlive/texmf-dist/tex/latex/ucs/ucsencs.def" 1480098842 22368 c53c9d0d16c65bef2b157515c9d9f658 ""
  "/usr/share/texlive/texmf-dist/tex/latex/ucs/utf8x.def" 1480098842 8036 21f7ac37aafb6cfeddbb196b8bfd6280 ""
  "/usr/share/texlive/texmf-dist/tex/latex/url/url.sty" 1480098842 12796 8edb7d69a20b857904dd0ea757c14ec9 ""
  "/usr/share/texlive/texmf-dist/tex/latex/wrapfig/wrapfig.sty" 1480098843 26220 3701aebf80ccdef248c0c20dd062fea9 ""
  "/usr/share/texlive/texmf-dist/tex/latex/xcolor/xcolor.sty" 1480098843 55589 34128738f682d033422ca125f82e5d62 ""
  "/usr/share/texlive/texmf-dist/tex/latex/xkeyval/xkeyval.sty" 1480098843 4962 9c1069474ff71dbc47d5006555e352d3 ""
  "/usr/share/texlive/texmf-dist/web2c/texmf.cnf" 1551226139 34566 ab5be96bde1a5acfd4f881dbe566b5fb ""
  "/usr/share/texmf/web2c/texmf.cnf" 1551226139 34566 ab5be96bde1a5acfd4f881dbe566b5fb ""
  "/var/lib/texmf/fonts/map/pdftex/updmap/pdftex.map" 1585561853 127853 b41f58aff49fe1af38af8d065f49d51c ""
  "/var/lib/texmf/web2c/pdftex/pdflatex.fmt" 1585944168 795361 b8c8c51cedc78855bb3f56239626f2d4 ""
  "img/iiit-logo.jpeg" 1586587444 9178 c7a0997a91604474335537a6c4d2312a ""
  "notebook.aux" 1586598546 719 50f3cf23dff4305b6c613d6270d6e0e5 ""
  "notebook.out" 1586598546 0 d41d8cd98f00b204e9800998ecf8427e ""
  "notebook.tex" 1586598545 5866 e809e03361aea1bff3dc89a8a2d466c8 ""
  "notebook.toc" 1586598546 23 fb767168eb9a1a023566292d291e8486 ""
  "tex/preface.tex" 1586597701 287 487064af1d4c602f407deb511a000c2a ""
  (generated)
  "/home/blizzard/Documents/bowserscastle/pwn-notebook/notebook.pdf"
  "/home/blizzard/Documents/bowserscastle/crypto-notebook/notebook.log"
  "/home/blizzard/Documents/bowserscastle/crypto-notebook/notebook.pdf"
  "notebook.pdf"
  "notebook.toc"
  "notebook.out"
  "notebook.aux"
  "notebook.log"
  "/home/blizzard/Documents/bowserscastle/pwn-notebook/notebook.log"
